Sample     Type  Filename
GSM155564  1     GSM155564.CEL.gz
GSM155565  1     GSM155565.CEL.gz
GSM155566  1     GSM155566.CEL.gz
GSM155567  1     GSM155567.CEL.gz
GSM155568  2     GSM155568.CEL.gz
GSM155569  2     GSM155569.CEL.gz
GSM155570  2     GSM155570.CEL.gz
GSM155571  2     GSM155571.CEL.gz
GSM155572  2     GSM155572.CEL.gz
GSM155573  2     GSM155573.CEL.gz
GSM155574  2     GSM155574.CEL.gz
GSM155575  2     GSM155575.CEL.gz
GSM155576  2     GSM155576.CEL.gz
GSM155577  2     GSM155577.CEL.gz
GSM155578  2     GSM155578.CEL.gz
GSM155579  2     GSM155579.CEL.gz
GSM155580  2     GSM155580.CEL.gz
GSM155581  2     GSM155581.CEL.gz
GSM155582  2     GSM155582.CEL.gz
GSM155583  2     GSM155583.CEL.gz
GSM155584  2     GSM155584.CEL.gz
GSM155585  2     GSM155585.CEL.gz
GSM155586  2     GSM155586.CEL.gz
