CPC020_A375_6H_X1_B4_DUO52HI53LO:B13	BRD-K22662435	ganciclovir	A375	6.0	h	10.0	um	b4	r2	dp52,dp53	19.0	79.0	duo	CPC020_A375_6H_X1_B4_DUO52HI53LO	B13	mlr12k	384.0	AB00009104	C-5001-01-CMP-022	1.0	B13	BRD-K22662435-001-13-4	trt_cp	DMSO	epsilon	KMV+F2D+INO+QNO+ZSP	7.4	8.14	62.0	CPC020_A375_6H_X1	B13	population
CPC020_A375_6H_X2_B4_DUO52HI53LO:B13	BRD-K22662435	ganciclovir	A375	6.0	h	10.0	um	b4	r2	dp52,dp53	25.0	76.0	duo	CPC020_A375_6H_X2_B4_DUO52HI53LO	B13	mlr12k	384.0	AB00009104	C-5001-01-CMP-022	1.0	B13	BRD-K22662435-001-13-4	trt_cp	DMSO	epsilon	KMV+F2D+INO+QNO+ZSP	7.5	8.61	61.0	CPC020_A375_6H_X2	B13	population
CPC020_A375_6H_X3_B4_DUO52HI53LO:B13	BRD-K22662435	ganciclovir	A375	6.0	h	10.0	um	b4	r2	dp52,dp53	26.0	67.0	duo	CPC020_A375_6H_X3_B4_DUO52HI53LO	B13	mlr12k	384.0	AB00009104	C-5001-01-CMP-022	1.0	B13	BRD-K22662435-001-13-4	trt_cp	DMSO	epsilon	KMV+F2D+INO+QNO+ZSP	6.9	8.4	62.0	CPC020_A375_6H_X3	B13	population
CPC020_A375_6H_X4_B5_DUO52HI53LO:B13	BRD-K22662435	ganciclovir	A375	6.0	h	10.0	um	b5	r2	dp52,dp53	14.0	91.0	duo	CPC020_A375_6H_X4_B5_DUO52HI53LO	B13	mlr12k	384.0	AB00009104	C-5001-01-CMP-022	1.0	B13	BRD-K22662435-001-13-4	trt_cp	DMSO	epsilon	KMV+F2D+INO+QNO+ZSP	7.0	14.17	67.0	CPC020_A375_6H_X4	B13	population
CPC020_A375_6H_X5_F1B5_DUO52HI53LO:B13	BRD-K22662435	ganciclovir	A375	6.0	h	10.0	um	f1b5	r2	dp52,dp53	15.0	93.0	duo	CPC020_A375_6H_X5_F1B5_DUO52HI53LO	B13	mlr12k	384.0	AB00009104	C-5001-01-CMP-022	1.0	B13	BRD-K22662435-001-13-4	trt_cp	DMSO	epsilon	KMV+F2D+INO+QNO+ZSP	6.5	20.51	70.0	CPC020_A375_6H_X5	B13	population
CPC020_A549_6H_X1.L2_F2B5_DUO52HI53LO:B13	BRD-K22662435	ganciclovir	A549	6.0	h	10.0	um	f2b5	r2	dp52,dp53	16.0	77.0	duo	CPC020_A549_6H_X1.L2_F2B5_DUO52HI53LO	B13	mlr12k	384.0	AB00009104	C-5001-01-CMP-022	1.0	B13	BRD-K22662435-001-13-4	trt_cp	DMSO	epsilon	KMV+F2D+INO+QNO+ZSP	7.0	15.02	68.0	CPC020_A549_6H_X1.L2	B13	population
CPC020_A549_6H_X3.L2_F2B5_DUO52HI53LO:B13	BRD-K22662435	ganciclovir	A549	6.0	h	10.0	um	f2b5	r2	dp52,dp53	15.0	102.0	duo	CPC020_A549_6H_X3.L2_F2B5_DUO52HI53LO	B13	mlr12k	384.0	AB00009104	C-5001-01-CMP-022	1.0	B13	BRD-K22662435-001-13-4	trt_cp	DMSO	epsilon	KMV+F2D+INO+QNO+ZSP	7.2	14.77	68.0	CPC020_A549_6H_X3.L2	B13	population
CPC020_HA1E_6H_X1_F1B3_DUO52HI53LO:B13	BRD-K22662435	ganciclovir	HA1E	6.0	h	10.0	um	f1b3	r2	dp52,dp53	19.0	81.0	duo	CPC020_HA1E_6H_X1_F1B3_DUO52HI53LO	B13	mlr12k	384.0	AB00009104	C-5001-01-CMP-022	1.0	B13	BRD-K22662435-001-13-4	trt_cp	DMSO	epsilon	KMV+F2D+INO+QNO+ZSP	5.3	11.3	65.0	CPC020_HA1E_6H_X1	B13	population
CPC020_HA1E_6H_X2_F1B3_DUO52HI53LO:B13	BRD-K22662435	ganciclovir	HA1E	6.0	h	10.0	um	f1b3	r2	dp52,dp53	20.0	91.0	duo	CPC020_HA1E_6H_X2_F1B3_DUO52HI53LO	B13	mlr12k	384.0	AB00009104	C-5001-01-CMP-022	1.0	B13	BRD-K22662435-001-13-4	trt_cp	DMSO	epsilon	KMV+F2D+INO+QNO+ZSP	6.6	10.43	64.0	CPC020_HA1E_6H_X2	B13	population
CPC020_HA1E_6H_X3_F1B3_DUO52HI53LO:B13	BRD-K22662435	ganciclovir	HA1E	6.0	h	10.0	um	f1b3	r2	dp52,dp53	23.0	88.0	duo	CPC020_HA1E_6H_X3_F1B3_DUO52HI53LO	B13	mlr12k	384.0	AB00009104	C-5001-01-CMP-022	1.0	B13	BRD-K22662435-001-13-4	trt_cp	DMSO	epsilon	KMV+F2D+INO+QNO+ZSP	5.3	12.74	65.0	CPC020_HA1E_6H_X3	B13	population
CPC020_HCC515_6H_X2_F1B3_DUO52HI53LO:B13	BRD-K22662435	ganciclovir	HCC515	6.0	h	10.0	um	f1b3	r2	dp52,dp53	22.0	73.0	duo	CPC020_HCC515_6H_X2_F1B3_DUO52HI53LO	B13	mlr12k	384.0	AB00009104	C-5001-01-CMP-022	1.0	B13	BRD-K22662435-001-13-4	trt_cp	DMSO	epsilon	KMV+F2D+INO+QNO+ZSP	5.8	12.11	66.0	CPC020_HCC515_6H_X2	B13	population
CPC020_HCC515_6H_X3_B4_DUO52HI53LO:B13	BRD-K22662435	ganciclovir	HCC515	6.0	h	10.0	um	b4	r2	dp52,dp53	20.0	87.0	duo	CPC020_HCC515_6H_X3_B4_DUO52HI53LO	B13	mlr12k	384.0	AB00009104	C-5001-01-CMP-022	1.0	B13	BRD-K22662435-001-13-4	trt_cp	DMSO	epsilon	KMV+F2D+INO+QNO+ZSP	5.1	10.56	68.0	CPC020_HCC515_6H_X3	B13	population
CPC020_HT29_6H_X1.L2_F1B5_DUO52HI53LO:B13	BRD-K22662435	ganciclovir	HT29	6.0	h	10.0	um	f1b5	r2	dp52,dp53	21.0	24.0	duo	CPC020_HT29_6H_X1.L2_F1B5_DUO52HI53LO	B13	mlr12k	384.0	AB00009104	C-5001-01-CMP-022	1.0	B13	BRD-K22662435-001-13-4	trt_cp	DMSO	epsilon	KMV+F2D+INO+QNO+ZSP	6.9	11.61	69.0	CPC020_HT29_6H_X1.L2	B13	population
CPC020_HT29_6H_X2.L2_B6_DUO52HI53LO:B13	BRD-K22662435	ganciclovir	HT29	6.0	h	10.0	um	b6	r2	dp52,dp53	15.0	102.0	duo	CPC020_HT29_6H_X2.L2_B6_DUO52HI53LO	B13	mlr12k	384.0	AB00009104	C-5001-01-CMP-022	1.0	B13	BRD-K22662435-001-13-4	trt_cp	DMSO	epsilon	KMV+F2D+INO+QNO+ZSP	6.9	12.76	67.0	CPC020_HT29_6H_X2.L2	B13	population
CPC020_HT29_6H_X4_B5_DUO52HI53LO:B13	BRD-K22662435	ganciclovir	HT29	6.0	h	10.0	um	b5	r2	dp52,dp53	14.0	101.0	duo	CPC020_HT29_6H_X4_B5_DUO52HI53LO	B13	mlr12k	384.0	AB00009104	C-5001-01-CMP-022	1.0	B13	BRD-K22662435-001-13-4	trt_cp	DMSO	epsilon	KMV+F2D+INO+QNO+ZSP	5.6	12.51	67.0	CPC020_HT29_6H_X4	B13	population
CPC020_HT29_6H_X5_B5_DUO52HI53LO:B13	BRD-K22662435	ganciclovir	HT29	6.0	h	10.0	um	b5	r2	dp52,dp53	16.0	56.0	duo	CPC020_HT29_6H_X5_B5_DUO52HI53LO	B13	mlr12k	384.0	AB00009104	C-5001-01-CMP-022	1.0	B13	BRD-K22662435-001-13-4	trt_cp	DMSO	epsilon	KMV+F2D+INO+QNO+ZSP	6.7	9.86	64.0	CPC020_HT29_6H_X5	B13	population
CPC020_MCF7_24H_X1_F1B4_DUO52HI53LO:B13	BRD-K22662435	ganciclovir	MCF7	24.0	h	10.0	um	f1b4	r2	dp52,dp53	23.0	73.0	duo	CPC020_MCF7_24H_X1_F1B4_DUO52HI53LO	B13	mlr12k	384.0	AB00009104	C-5001-01-CMP-022	1.0	B13	BRD-K22662435-001-13-4	trt_cp	DMSO	epsilon	KMV+F2D+INO+QNO+ZSP	9.8	10.5	63.0	CPC020_MCF7_24H_X1	B13	population
CPC020_MCF7_24H_X2_F1B4_DUO52HI53LO:B13	BRD-K22662435	ganciclovir	MCF7	24.0	h	10.0	um	f1b4	r2	dp52,dp53	23.0	72.0	duo	CPC020_MCF7_24H_X2_F1B4_DUO52HI53LO	B13	mlr12k	384.0	AB00009104	C-5001-01-CMP-022	1.0	B13	BRD-K22662435-001-13-4	trt_cp	DMSO	epsilon	KMV+F2D+INO+QNO+ZSP	7.4	9.61	62.0	CPC020_MCF7_24H_X2	B13	population
CPC020_MCF7_24H_X3_F1B4_DUO52HI53LO:B13	BRD-K22662435	ganciclovir	MCF7	24.0	h	10.0	um	f1b4	r2	dp52,dp53	22.0	70.0	duo	CPC020_MCF7_24H_X3_F1B4_DUO52HI53LO	B13	mlr12k	384.0	AB00009104	C-5001-01-CMP-022	1.0	B13	BRD-K22662435-001-13-4	trt_cp	DMSO	epsilon	KMV+F2D+INO+QNO+ZSP	5.6	14.38	66.0	CPC020_MCF7_24H_X3	B13	population
CPC020_MCF7_24H_X4_F2B4_DUO52HI53LO:B13	BRD-K22662435	ganciclovir	MCF7	24.0	h	10.0	um	f2b4	r2	dp52,dp53	26.0	92.0	duo	CPC020_MCF7_24H_X4_F2B4_DUO52HI53LO	B13	mlr12k	384.0	AB00009104	C-5001-01-CMP-022	1.0	B13	BRD-K22662435-001-13-4	trt_cp	DMSO	epsilon	KMV+F2D+INO+QNO+ZSP	7.8	16.92	67.0	CPC020_MCF7_24H_X4	B13	population
CPC020_MCF7_24H_X5_B5_DUO52HI53LO:B13	BRD-K22662435	ganciclovir	MCF7	24.0	h	10.0	um	b5	r2	dp52,dp53	18.0	66.0	duo	CPC020_MCF7_24H_X5_B5_DUO52HI53LO	B13	mlr12k	384.0	AB00009104	C-5001-01-CMP-022	1.0	B13	BRD-K22662435-001-13-4	trt_cp	DMSO	epsilon	KMV+F2D+INO+QNO+ZSP	8.1	8.95	61.0	CPC020_MCF7_24H_X5	B13	population
CPC020_MCF7_6H_X1_B4_DUO52HI53LO:B13	BRD-K22662435	ganciclovir	MCF7	6.0	h	10.0	um	b4	r2	dp52,dp53	20.0	73.0	duo	CPC020_MCF7_6H_X1_B4_DUO52HI53LO	B13	mlr12k	384.0	AB00009104	C-5001-01-CMP-022	1.0	B13	BRD-K22662435-001-13-4	trt_cp	DMSO	epsilon	KMV+F2D+INO+QNO+ZSP	8.3	8.73	60.0	CPC020_MCF7_6H_X1	B13	population
CPC020_MCF7_6H_X2_B4_DUO52HI53LO:B13	BRD-K22662435	ganciclovir	MCF7	6.0	h	10.0	um	b4	r2	dp52,dp53	18.0	76.0	duo	CPC020_MCF7_6H_X2_B4_DUO52HI53LO	B13	mlr12k	384.0	AB00009104	C-5001-01-CMP-022	1.0	B13	BRD-K22662435-001-13-4	trt_cp	DMSO	epsilon	KMV+F2D+INO+QNO+ZSP	8.3	8.68	61.0	CPC020_MCF7_6H_X2	B13	population
CPC020_MCF7_6H_X3_B4_DUO52HI53LO:B13	BRD-K22662435	ganciclovir	MCF7	6.0	h	10.0	um	b4	r2	dp52,dp53	35.0	73.0	duo	CPC020_MCF7_6H_X3_B4_DUO52HI53LO	B13	mlr12k	384.0	AB00009104	C-5001-01-CMP-022	1.0	B13	BRD-K22662435-001-13-4	trt_cp	DMSO	epsilon	KMV+F2D+INO+QNO+ZSP	8.1	10.19	61.0	CPC020_MCF7_6H_X3	B13	population
CPC020_MCF7_6H_X5_F1B5_DUO52HI53LO:B13	BRD-K22662435	ganciclovir	MCF7	6.0	h	10.0	um	f1b5	r2	dp52,dp53	16.0	69.0	duo	CPC020_MCF7_6H_X5_F1B5_DUO52HI53LO	B13	mlr12k	384.0	AB00009104	C-5001-01-CMP-022	1.0	B13	BRD-K22662435-001-13-4	trt_cp	DMSO	epsilon	KMV+F2D+INO+QNO+ZSP	7.3	11.1	64.0	CPC020_MCF7_6H_X5	B13	population
CPC020_PC3_24H_X1_B5_DUO52HI53LO:B13	BRD-K22662435	ganciclovir	PC3	24.0	h	10.0	um	b5	r2	dp52,dp53	18.0	82.0	duo	CPC020_PC3_24H_X1_B5_DUO52HI53LO	B13	mlr12k	384.0	AB00009104	C-5001-01-CMP-022	1.0	B13	BRD-K22662435-001-13-4	trt_cp	DMSO	epsilon	KMV+F2D+INO+QNO+ZSP	7.9	24.49	69.0	CPC020_PC3_24H_X1	B13	population
CPC020_PC3_24H_X2_B5_DUO52HI53LO:B13	BRD-K22662435	ganciclovir	PC3	24.0	h	10.0	um	b5	r2	dp52,dp53	19.0	85.0	duo	CPC020_PC3_24H_X2_B5_DUO52HI53LO	B13	mlr12k	384.0	AB00009104	C-5001-01-CMP-022	1.0	B13	BRD-K22662435-001-13-4	trt_cp	DMSO	epsilon	KMV+F2D+INO+QNO+ZSP	6.9	9.89	67.0	CPC020_PC3_24H_X2	B13	population
CPC020_PC3_24H_X3_B5_DUO52HI53LO:B13	BRD-K22662435	ganciclovir	PC3	24.0	h	10.0	um	b5	r2	dp52,dp53	15.0	85.0	duo	CPC020_PC3_24H_X3_B5_DUO52HI53LO	B13	mlr12k	384.0	AB00009104	C-5001-01-CMP-022	1.0	B13	BRD-K22662435-001-13-4	trt_cp	DMSO	epsilon	KMV+F2D+INO+QNO+ZSP	7.1	9.67	61.0	CPC020_PC3_24H_X3	B13	population
CPC020_PC3_24H_X4_B5_DUO52HI53LO:B13	BRD-K22662435	ganciclovir	PC3	24.0	h	10.0	um	b5	r2	dp52,dp53	18.0	87.0	duo	CPC020_PC3_24H_X4_B5_DUO52HI53LO	B13	mlr12k	384.0	AB00009104	C-5001-01-CMP-022	1.0	B13	BRD-K22662435-001-13-4	trt_cp	DMSO	epsilon	KMV+F2D+INO+QNO+ZSP	7.1	11.31	67.0	CPC020_PC3_24H_X4	B13	population
CPC020_PC3_24H_X5_B5_DUO52HI53LO:B13	BRD-K22662435	ganciclovir	PC3	24.0	h	10.0	um	b5	r2	dp52,dp53	20.0	58.0	duo	CPC020_PC3_24H_X5_B5_DUO52HI53LO	B13	mlr12k	384.0	AB00009104	C-5001-01-CMP-022	1.0	B13	BRD-K22662435-001-13-4	trt_cp	DMSO	epsilon	KMV+F2D+INO+QNO+ZSP	7.8	10.05	62.0	CPC020_PC3_24H_X5	B13	population
CPC020_PC3_6H_X1_B4_DUO52HI53LO:B13	BRD-K22662435	ganciclovir	PC3	6.0	h	10.0	um	b4	r2	dp52,dp53	17.0	105.0	duo	CPC020_PC3_6H_X1_B4_DUO52HI53LO	B13	mlr12k	384.0	AB00009104	C-5001-01-CMP-022	1.0	B13	BRD-K22662435-001-13-4	trt_cp	DMSO	epsilon	KMV+F2D+INO+QNO+ZSP	9.0	7.98	61.0	CPC020_PC3_6H_X1	B13	population
CPC020_PC3_6H_X2_B4_DUO52HI53LO:B13	BRD-K22662435	ganciclovir	PC3	6.0	h	10.0	um	b4	r2	dp52,dp53	17.0	98.0	duo	CPC020_PC3_6H_X2_B4_DUO52HI53LO	B13	mlr12k	384.0	AB00009104	C-5001-01-CMP-022	1.0	B13	BRD-K22662435-001-13-4	trt_cp	DMSO	epsilon	KMV+F2D+INO+QNO+ZSP	8.3	8.7	61.0	CPC020_PC3_6H_X2	B13	population
CPC020_PC3_6H_X3_B4_DUO52HI53LO:B13	BRD-K22662435	ganciclovir	PC3	6.0	h	10.0	um	b4	r2	dp52,dp53	21.0	76.0	duo	CPC020_PC3_6H_X3_B4_DUO52HI53LO	B13	mlr12k	384.0	AB00009104	C-5001-01-CMP-022	1.0	B13	BRD-K22662435-001-13-4	trt_cp	DMSO	epsilon	KMV+F2D+INO+QNO+ZSP	7.8	8.88	62.0	CPC020_PC3_6H_X3	B13	population
CPC020_PC3_6H_X4_F1B4_DUO52HI53LO:B13	BRD-K22662435	ganciclovir	PC3	6.0	h	10.0	um	f1b4	r2	dp52,dp53	21.0	77.0	duo	CPC020_PC3_6H_X4_F1B4_DUO52HI53LO	B13	mlr12k	384.0	AB00009104	C-5001-01-CMP-022	1.0	B13	BRD-K22662435-001-13-4	trt_cp	DMSO	epsilon	KMV+F2D+INO+QNO+ZSP	7.7	9.44	64.0	CPC020_PC3_6H_X4	B13	population
CPC020_PC3_6H_X5_B5_DUO52HI53LO:B13	BRD-K22662435	ganciclovir	PC3	6.0	h	10.0	um	b5	r2	dp52,dp53	15.0	86.0	duo	CPC020_PC3_6H_X5_B5_DUO52HI53LO	B13	mlr12k	384.0	AB00009104	C-5001-01-CMP-022	1.0	B13	BRD-K22662435-001-13-4	trt_cp	DMSO	epsilon	KMV+F2D+INO+QNO+ZSP	7.2	10.71	63.0	CPC020_PC3_6H_X5	B13	population
CPC020_VCAP_24H_X1_F1B5_DUO52HI53LO:B13	BRD-K22662435	ganciclovir	VCAP	24.0	h	10.0	um	f1b5	r2	dp52,dp53	16.0	69.0	duo	CPC020_VCAP_24H_X1_F1B5_DUO52HI53LO	B13	mlr12k	384.0	AB00009104	C-5001-01-CMP-022	1.0	B13	BRD-K22662435-001-13-4	trt_cp	DMSO	epsilon	KMV+F2D+INO+QNO+ZSP	9.4	11.6	65.0	CPC020_VCAP_24H_X1	B13	population
CPC020_VCAP_24H_X2_F1B5_DUO52HI53LO:B13	BRD-K22662435	ganciclovir	VCAP	24.0	h	10.0	um	f1b5	r2	dp52,dp53	15.0	86.0	duo	CPC020_VCAP_24H_X2_F1B5_DUO52HI53LO	B13	mlr12k	384.0	AB00009104	C-5001-01-CMP-022	1.0	B13	BRD-K22662435-001-13-4	trt_cp	DMSO	epsilon	KMV+F2D+INO+QNO+ZSP	6.5	9.79	63.0	CPC020_VCAP_24H_X2	B13	population
CPC020_VCAP_24H_X3_F1B5_DUO52HI53LO:B13	BRD-K22662435	ganciclovir	VCAP	24.0	h	10.0	um	f1b5	r2	dp52,dp53	16.0	73.0	duo	CPC020_VCAP_24H_X3_F1B5_DUO52HI53LO	B13	mlr12k	384.0	AB00009104	C-5001-01-CMP-022	1.0	B13	BRD-K22662435-001-13-4	trt_cp	DMSO	epsilon	KMV+F2D+INO+QNO+ZSP	7.5	15.36	65.0	CPC020_VCAP_24H_X3	B13	population
CPC020_VCAP_24H_X4_B5_DUO52HI53LO:B13	BRD-K22662435	ganciclovir	VCAP	24.0	h	10.0	um	b5	r2	dp52,dp53	16.0	76.0	duo	CPC020_VCAP_24H_X4_B5_DUO52HI53LO	B13	mlr12k	384.0	AB00009104	C-5001-01-CMP-022	1.0	B13	BRD-K22662435-001-13-4	trt_cp	DMSO	epsilon	KMV+F2D+INO+QNO+ZSP	8.2	9.9	63.0	CPC020_VCAP_24H_X4	B13	population
CPC020_VCAP_24H_X5_B5_DUO52HI53LO:B13	BRD-K22662435	ganciclovir	VCAP	24.0	h	10.0	um	b5	r2	dp52,dp53	14.0	85.0	duo	CPC020_VCAP_24H_X5_B5_DUO52HI53LO	B13	mlr12k	384.0	AB00009104	C-5001-01-CMP-022	1.0	B13	BRD-K22662435-001-13-4	trt_cp	DMSO	epsilon	KMV+F2D+INO+QNO+ZSP	7.3	10.9	65.0	CPC020_VCAP_24H_X5	B13	population
CPC020_VCAP_6H_X1_F1B3_DUO52HI53LO:B13	BRD-K22662435	ganciclovir	VCAP	6.0	h	10.0	um	f1b3	r2	dp52,dp53	23.0	63.0	duo	CPC020_VCAP_6H_X1_F1B3_DUO52HI53LO	B13	mlr12k	384.0	AB00009104	C-5001-01-CMP-022	1.0	B13	BRD-K22662435-001-13-4	trt_cp	DMSO	epsilon	KMV+F2D+INO+QNO+ZSP	7.0	11.55	62.0	CPC020_VCAP_6H_X1	B13	population
CPC020_VCAP_6H_X2_B4_DUO52HI53LO:B13	BRD-K22662435	ganciclovir	VCAP	6.0	h	10.0	um	b4	r2	dp52,dp53	20.0	77.0	duo	CPC020_VCAP_6H_X2_B4_DUO52HI53LO	B13	mlr12k	384.0	AB00009104	C-5001-01-CMP-022	1.0	B13	BRD-K22662435-001-13-4	trt_cp	DMSO	epsilon	KMV+F2D+INO+QNO+ZSP	7.6	9.5	63.0	CPC020_VCAP_6H_X2	B13	population
CPC020_VCAP_6H_X3_B4_DUO52HI53LO:B13	BRD-K22662435	ganciclovir	VCAP	6.0	h	10.0	um	b4	r2	dp52,dp53	20.0	93.0	duo	CPC020_VCAP_6H_X3_B4_DUO52HI53LO	B13	mlr12k	384.0	AB00009104	C-5001-01-CMP-022	1.0	B13	BRD-K22662435-001-13-4	trt_cp	DMSO	epsilon	KMV+F2D+INO+QNO+ZSP	6.6	9.39	65.0	CPC020_VCAP_6H_X3	B13	population
CPC020_VCAP_6H_X4_B5_DUO52HI53LO:B13	BRD-K22662435	ganciclovir	VCAP	6.0	h	10.0	um	b5	r2	dp52,dp53	16.0	77.0	duo	CPC020_VCAP_6H_X4_B5_DUO52HI53LO	B13	mlr12k	384.0	AB00009104	C-5001-01-CMP-022	1.0	B13	BRD-K22662435-001-13-4	trt_cp	DMSO	epsilon	KMV+F2D+INO+QNO+ZSP	5.8	20.03	68.0	CPC020_VCAP_6H_X4	B13	population
CPC020_VCAP_6H_X5_B5_DUO52HI53LO:B13	BRD-K22662435	ganciclovir	VCAP	6.0	h	10.0	um	b5	r2	dp52,dp53	16.0	70.0	duo	CPC020_VCAP_6H_X5_B5_DUO52HI53LO	B13	mlr12k	384.0	AB00009104	C-5001-01-CMP-022	1.0	B13	BRD-K22662435-001-13-4	trt_cp	DMSO	epsilon	KMV+F2D+INO+QNO+ZSP	7.6	23.04	69.0	CPC020_VCAP_6H_X5	B13	population
CPD003_MCF7_24H_X1_B6_DUO52HI53LO:G19	BRD-K22662435	Ganciclovir	MCF7	24.0	h	10.0	um	b6	r2	dp52,dp53	20.0	63.0	duo	CPD003_MCF7_24H_X1_B6_DUO52HI53LO	G19	mlr12k	384.0	BR00037930	PW_PLATE11	1.0	D10	BRD-K22662435-001-11-8	trt_cp	DMSO	epsilon	KMV+F2D+INO+QNO+ZSP	8.6	9.51	59.0	CPD003_MCF7_24H_X1	G19	population
CPD003_MCF7_24H_X2.L2_B6_DUO52HI53LO:G19	BRD-K22662435	Ganciclovir	MCF7	24.0	h	10.0	um	b6	r2	dp52,dp53	14.0	90.0	duo	CPD003_MCF7_24H_X2.L2_B6_DUO52HI53LO	G19	mlr12k	384.0	BR00037930	PW_PLATE11	1.0	D10	BRD-K22662435-001-11-8	trt_cp	DMSO	epsilon	KMV+F2D+INO+QNO+ZSP	9.1	9.48	64.0	CPD003_MCF7_24H_X2.L2	G19	population
CPD003_MCF7_24H_X3.L2_B6_DUO52HI53LO:G19	BRD-K22662435	Ganciclovir	MCF7	24.0	h	10.0	um	b6	r2	dp52,dp53	15.0	97.0	duo	CPD003_MCF7_24H_X3.L2_B6_DUO52HI53LO	G19	mlr12k	384.0	BR00037930	PW_PLATE11	1.0	D10	BRD-K22662435-001-11-8	trt_cp	DMSO	epsilon	KMV+F2D+INO+QNO+ZSP	9.3	11.26	63.0	CPD003_MCF7_24H_X3.L2	G19	population
CPD003_MCF7_24H_X3_B6_DUO52HI53LO:G19	BRD-K22662435	Ganciclovir	MCF7	24.0	h	10.0	um	b6	r2	dp52,dp53	14.0	85.0	duo	CPD003_MCF7_24H_X3_B6_DUO52HI53LO	G19	mlr12k	384.0	BR00037930	PW_PLATE11	1.0	D10	BRD-K22662435-001-11-8	trt_cp	DMSO	epsilon	KMV+F2D+INO+QNO+ZSP	3.6	19.53	70.0	CPD003_MCF7_24H_X3	G19	population
CPD003_PC3_24H_X1.L2_B6_DUO52HI53LO:G19	BRD-K22662435	Ganciclovir	PC3	24.0	h	10.0	um	b6	r2	dp52,dp53	19.0	67.0	duo	CPD003_PC3_24H_X1.L2_B6_DUO52HI53LO	G19	mlr12k	384.0	BR00037930	PW_PLATE11	1.0	D10	BRD-K22662435-001-11-8	trt_cp	DMSO	epsilon	KMV+F2D+INO+QNO+ZSP	6.5	13.74	67.0	CPD003_PC3_24H_X1.L2	G19	population
CPD003_PC3_24H_X2.L2_B6_DUO52HI53LO:G19	BRD-K22662435	Ganciclovir	PC3	24.0	h	10.0	um	b6	r2	dp52,dp53	14.0	95.0	duo	CPD003_PC3_24H_X2.L2_B6_DUO52HI53LO	G19	mlr12k	384.0	BR00037930	PW_PLATE11	1.0	D10	BRD-K22662435-001-11-8	trt_cp	DMSO	epsilon	KMV+F2D+INO+QNO+ZSP	7.6	9.08	65.0	CPD003_PC3_24H_X2.L2	G19	population
CPD003_PC3_6H_X3.A2_B6_DUO52HI53LO:G19	BRD-K22662435	Ganciclovir	PC3	6.0	h	10.0	um	b6	r2	dp52,dp53	17.0	56.0	duo	CPD003_PC3_6H_X3.A2_B6_DUO52HI53LO	G19	mlr12k	384.0	BR00037930	PW_PLATE11	1.0	D10	BRD-K22662435-001-11-8	trt_cp	DMSO	epsilon	KMV+F2D+INO+QNO+ZSP	9.6	9.44	63.0	CPD003_PC3_6H_X3.A2	G19	population
CPD003_MCF7_6H_X1_B6_DUO52HI53LO:G19	BRD-K22662435	Ganciclovir	MCF7	6.0	h	10.0	um	b6	r2	dp52,dp53	18.0	55.0	duo	CPD003_MCF7_6H_X1_B6_DUO52HI53LO	G19	mlr12k	384.0	BR00037930	PW_PLATE11	1.0	D10	BRD-K22662435-001-11-8	trt_cp	DMSO	epsilon	KMV+F2D+INO+QNO+ZSP	7.2	18.37	66.0	CPD003_MCF7_6H_X1	G19	population
CPD003_MCF7_6H_X2_B6_DUO52HI53LO:G19	BRD-K22662435	Ganciclovir	MCF7	6.0	h	10.0	um	b6	r2	dp52,dp53	20.0	59.0	duo	CPD003_MCF7_6H_X2_B6_DUO52HI53LO	G19	mlr12k	384.0	BR00037930	PW_PLATE11	1.0	D10	BRD-K22662435-001-11-8	trt_cp	DMSO	epsilon	KMV+F2D+INO+QNO+ZSP	5.9	18.69	68.0	CPD003_MCF7_6H_X2	G19	population
CPD003_PC3_6H_X1_B6_DUO52HI53LO:G19	BRD-K22662435	Ganciclovir	PC3	6.0	h	10.0	um	b6	r2	dp52,dp53	17.0	57.0	duo	CPD003_PC3_6H_X1_B6_DUO52HI53LO	G19	mlr12k	384.0	BR00037930	PW_PLATE11	1.0	D10	BRD-K22662435-001-11-8	trt_cp	DMSO	epsilon	KMV+F2D+INO+QNO+ZSP	5.3	21.18	67.0	CPD003_PC3_6H_X1	G19	population
CPD003_PC3_6H_X3_B6_DUO52HI53LO:G19	BRD-K22662435	Ganciclovir	PC3	6.0	h	10.0	um	b6	r2	dp52,dp53	17.0	62.0	duo	CPD003_PC3_6H_X3_B6_DUO52HI53LO	G19	mlr12k	384.0	BR00037930	PW_PLATE11	1.0	D10	BRD-K22662435-001-11-8	trt_cp	DMSO	epsilon	KMV+F2D+INO+QNO+ZSP	7.4	11.15	64.0	CPD003_PC3_6H_X3	G19	population
