CPC005_A375_24H_X1_B3_DUO52HI53LO:K03	BRD-A24514565	WARFARIN	A375	24.0	h	10.0	um	b3	r2	dp52,dp53	21.0	55.0	duo	CPC005_A375_24H_X1_B3_DUO52HI53LO	K03	mlr12k	384.0	AB00009410	C-5001-01-CMP-013	1.0	K03	BRD-A24514565-001-04-8	trt_cp	DMSO	epsilon	KMV+F2D+INO+QNO+ZSP	6.9	11.41	62.0	CPC005_A375_24H_X1	K03	population
CPC005_A375_24H_X2_B3_DUO52HI53LO:K03	BRD-A24514565	WARFARIN	A375	24.0	h	10.0	um	b3	r2	dp52,dp53	18.0	79.0	duo	CPC005_A375_24H_X2_B3_DUO52HI53LO	K03	mlr12k	384.0	AB00009410	C-5001-01-CMP-013	1.0	K03	BRD-A24514565-001-04-8	trt_cp	DMSO	epsilon	KMV+F2D+INO+QNO+ZSP	6.8	11.24	63.0	CPC005_A375_24H_X2	K03	population
CPC005_A375_24H_X3_B3_DUO52HI53LO:K03	BRD-A24514565	WARFARIN	A375	24.0	h	10.0	um	b3	r2	dp52,dp53	16.0	86.0	duo	CPC005_A375_24H_X3_B3_DUO52HI53LO	K03	mlr12k	384.0	AB00009410	C-5001-01-CMP-013	1.0	K03	BRD-A24514565-001-04-8	trt_cp	DMSO	epsilon	KMV+F2D+INO+QNO+ZSP	7.2	10.03	63.0	CPC005_A375_24H_X3	K03	population
CPC005_A375_6H_X2_B3_DUO52HI53LO:K03	BRD-A24514565	WARFARIN	A375	6.0	h	10.0	um	b3	r2	dp52,dp53	18.0	77.0	duo	CPC005_A375_6H_X2_B3_DUO52HI53LO	K03	mlr12k	384.0	AB00009410	C-5001-01-CMP-013	1.0	K03	BRD-A24514565-001-04-8	trt_cp	DMSO	epsilon	KMV+F2D+INO+QNO+ZSP	7.4	10.14	62.0	CPC005_A375_6H_X2	K03	population
CPC005_A375_6H_X3_B3_DUO52HI53LO:K03	BRD-A24514565	WARFARIN	A375	6.0	h	10.0	um	b3	r2	dp52,dp53	21.0	67.0	duo	CPC005_A375_6H_X3_B3_DUO52HI53LO	K03	mlr12k	384.0	AB00009410	C-5001-01-CMP-013	1.0	K03	BRD-A24514565-001-04-8	trt_cp	DMSO	epsilon	KMV+F2D+INO+QNO+ZSP	7.3	9.93	61.0	CPC005_A375_6H_X3	K03	population
CPC005_A549_24H_X1_B3_DUO52HI53LO:K03	BRD-A24514565	WARFARIN	A549	24.0	h	10.0	um	b3	r2	dp52,dp53	17.0	87.0	duo	CPC005_A549_24H_X1_B3_DUO52HI53LO	K03	mlr12k	384.0	AB00009410	C-5001-01-CMP-013	1.0	K03	BRD-A24514565-001-04-8	trt_cp	DMSO	epsilon	KMV+F2D+INO+QNO+ZSP	7.6	10.12	62.0	CPC005_A549_24H_X1	K03	population
CPC005_A549_24H_X2_B3_DUO52HI53LO:K03	BRD-A24514565	WARFARIN	A549	24.0	h	10.0	um	b3	r2	dp52,dp53	16.0	82.0	duo	CPC005_A549_24H_X2_B3_DUO52HI53LO	K03	mlr12k	384.0	AB00009410	C-5001-01-CMP-013	1.0	K03	BRD-A24514565-001-04-8	trt_cp	DMSO	epsilon	KMV+F2D+INO+QNO+ZSP	8.2	9.38	61.0	CPC005_A549_24H_X2	K03	population
CPC005_A549_24H_X3_B3_DUO52HI53LO:K03	BRD-A24514565	WARFARIN	A549	24.0	h	10.0	um	b3	r2	dp52,dp53	21.0	68.0	duo	CPC005_A549_24H_X3_B3_DUO52HI53LO	K03	mlr12k	384.0	AB00009410	C-5001-01-CMP-013	1.0	K03	BRD-A24514565-001-04-8	trt_cp	DMSO	epsilon	KMV+F2D+INO+QNO+ZSP	6.8	11.02	61.0	CPC005_A549_24H_X3	K03	population
CPC005_A549_6H_X1_B3_DUO52HI53LO:K03	BRD-A24514565	WARFARIN	A549	6.0	h	10.0	um	b3	r2	dp52,dp53	18.0	75.0	duo	CPC005_A549_6H_X1_B3_DUO52HI53LO	K03	mlr12k	384.0	AB00009410	C-5001-01-CMP-013	1.0	K03	BRD-A24514565-001-04-8	trt_cp	DMSO	epsilon	KMV+F2D+INO+QNO+ZSP	8.1	9.69	63.0	CPC005_A549_6H_X1	K03	population
CPC005_A549_6H_X2_B3_DUO52HI53LO:K03	BRD-A24514565	WARFARIN	A549	6.0	h	10.0	um	b3	r2	dp52,dp53	19.0	93.0	duo	CPC005_A549_6H_X2_B3_DUO52HI53LO	K03	mlr12k	384.0	AB00009410	C-5001-01-CMP-013	1.0	K03	BRD-A24514565-001-04-8	trt_cp	DMSO	epsilon	KMV+F2D+INO+QNO+ZSP	8.4	10.15	63.0	CPC005_A549_6H_X2	K03	population
CPC005_A549_6H_X3_B3_DUO52HI53LO:K03	BRD-A24514565	WARFARIN	A549	6.0	h	10.0	um	b3	r2	dp52,dp53	19.0	71.0	duo	CPC005_A549_6H_X3_B3_DUO52HI53LO	K03	mlr12k	384.0	AB00009410	C-5001-01-CMP-013	1.0	K03	BRD-A24514565-001-04-8	trt_cp	DMSO	epsilon	KMV+F2D+INO+QNO+ZSP	7.8	9.87	62.0	CPC005_A549_6H_X3	K03	population
CPC005_HA1E_24H_X1_B3_DUO52HI53LO:K03	BRD-A24514565	WARFARIN	HA1E	24.0	h	10.0	um	b3	r2	dp52,dp53	19.0	74.0	duo	CPC005_HA1E_24H_X1_B3_DUO52HI53LO	K03	mlr12k	384.0	AB00009410	C-5001-01-CMP-013	1.0	K03	BRD-A24514565-001-04-8	trt_cp	DMSO	epsilon	KMV+F2D+INO+QNO+ZSP	7.3	9.85	63.0	CPC005_HA1E_24H_X1	K03	population
CPC005_HA1E_24H_X2_B3_DUO52HI53LO:K03	BRD-A24514565	WARFARIN	HA1E	24.0	h	10.0	um	b3	r2	dp52,dp53	16.0	94.0	duo	CPC005_HA1E_24H_X2_B3_DUO52HI53LO	K03	mlr12k	384.0	AB00009410	C-5001-01-CMP-013	1.0	K03	BRD-A24514565-001-04-8	trt_cp	DMSO	epsilon	KMV+F2D+INO+QNO+ZSP	7.1	8.86	62.0	CPC005_HA1E_24H_X2	K03	population
CPC005_HA1E_24H_X3_B3_DUO52HI53LO:K03	BRD-A24514565	WARFARIN	HA1E	24.0	h	10.0	um	b3	r2	dp52,dp53	16.0	96.0	duo	CPC005_HA1E_24H_X3_B3_DUO52HI53LO	K03	mlr12k	384.0	AB00009410	C-5001-01-CMP-013	1.0	K03	BRD-A24514565-001-04-8	trt_cp	DMSO	epsilon	KMV+F2D+INO+QNO+ZSP	6.3	9.49	64.0	CPC005_HA1E_24H_X3	K03	population
CPC005_HA1E_6H_X1_B3_DUO52HI53LO:K03	BRD-A24514565	WARFARIN	HA1E	6.0	h	10.0	um	b3	r2	dp52,dp53	19.0	76.0	duo	CPC005_HA1E_6H_X1_B3_DUO52HI53LO	K03	mlr12k	384.0	AB00009410	C-5001-01-CMP-013	1.0	K03	BRD-A24514565-001-04-8	trt_cp	DMSO	epsilon	KMV+F2D+INO+QNO+ZSP	7.0	9.87	62.0	CPC005_HA1E_6H_X1	K03	population
CPC005_HA1E_6H_X3_B3_DUO52HI53LO:K03	BRD-A24514565	WARFARIN	HA1E	6.0	h	10.0	um	b3	r2	dp52,dp53	18.0	93.0	duo	CPC005_HA1E_6H_X3_B3_DUO52HI53LO	K03	mlr12k	384.0	AB00009410	C-5001-01-CMP-013	1.0	K03	BRD-A24514565-001-04-8	trt_cp	DMSO	epsilon	KMV+F2D+INO+QNO+ZSP	6.7	8.41	62.0	CPC005_HA1E_6H_X3	K03	population
CPC005_HCC515_6H_X2_F1B4_DUO52HI53LO:K03	BRD-A24514565	WARFARIN	HCC515	6.0	h	10.0	um	f1b4	r2	dp52,dp53	21.0	84.0	duo	CPC005_HCC515_6H_X2_F1B4_DUO52HI53LO	K03	mlr12k	384.0	AB00009410	C-5001-01-CMP-013	1.0	K03	BRD-A24514565-001-04-8	trt_cp	DMSO	epsilon	KMV+F2D+INO+QNO+ZSP	8.2	9.81	61.0	CPC005_HCC515_6H_X2	K03	population
CPC005_HCC515_6H_X3_F1B3_DUO52HI53LO:K03	BRD-A24514565	WARFARIN	HCC515	6.0	h	10.0	um	f1b3	r2	dp52,dp53	18.0	99.0	duo	CPC005_HCC515_6H_X3_F1B3_DUO52HI53LO	K03	mlr12k	384.0	AB00009410	C-5001-01-CMP-013	1.0	K03	BRD-A24514565-001-04-8	trt_cp	DMSO	epsilon	KMV+F2D+INO+QNO+ZSP	6.6	14.02	66.0	CPC005_HCC515_6H_X3	K03	population
CPC005_HT29_24H_X1_B3_DUO52HI53LO:K03	BRD-A24514565	WARFARIN	HT29	24.0	h	10.0	um	b3	r2	dp52,dp53	20.0	61.0	duo	CPC005_HT29_24H_X1_B3_DUO52HI53LO	K03	mlr12k	384.0	AB00009410	C-5001-01-CMP-013	1.0	K03	BRD-A24514565-001-04-8	trt_cp	DMSO	epsilon	KMV+F2D+INO+QNO+ZSP	7.3	9.51	62.0	CPC005_HT29_24H_X1	K03	population
CPC005_HT29_24H_X2_B3_DUO52HI53LO:K03	BRD-A24514565	WARFARIN	HT29	24.0	h	10.0	um	b3	r2	dp52,dp53	16.0	94.0	duo	CPC005_HT29_24H_X2_B3_DUO52HI53LO	K03	mlr12k	384.0	AB00009410	C-5001-01-CMP-013	1.0	K03	BRD-A24514565-001-04-8	trt_cp	DMSO	epsilon	KMV+F2D+INO+QNO+ZSP	6.7	10.12	62.0	CPC005_HT29_24H_X2	K03	population
CPC005_HT29_24H_X3_B3_DUO52HI53LO:K03	BRD-A24514565	WARFARIN	HT29	24.0	h	10.0	um	b3	r2	dp52,dp53	19.0	68.0	duo	CPC005_HT29_24H_X3_B3_DUO52HI53LO	K03	mlr12k	384.0	AB00009410	C-5001-01-CMP-013	1.0	K03	BRD-A24514565-001-04-8	trt_cp	DMSO	epsilon	KMV+F2D+INO+QNO+ZSP	6.4	10.89	62.0	CPC005_HT29_24H_X3	K03	population
CPC005_HT29_6H_X1_B3_DUO52HI53LO:K03	BRD-A24514565	WARFARIN	HT29	6.0	h	10.0	um	b3	r2	dp52,dp53	18.0	91.0	duo	CPC005_HT29_6H_X1_B3_DUO52HI53LO	K03	mlr12k	384.0	AB00009410	C-5001-01-CMP-013	1.0	K03	BRD-A24514565-001-04-8	trt_cp	DMSO	epsilon	KMV+F2D+INO+QNO+ZSP	8.2	9.57	59.0	CPC005_HT29_6H_X1	K03	population
CPC005_HT29_6H_X2_B3_DUO52HI53LO:K03	BRD-A24514565	WARFARIN	HT29	6.0	h	10.0	um	b3	r2	dp52,dp53	18.0	85.0	duo	CPC005_HT29_6H_X2_B3_DUO52HI53LO	K03	mlr12k	384.0	AB00009410	C-5001-01-CMP-013	1.0	K03	BRD-A24514565-001-04-8	trt_cp	DMSO	epsilon	KMV+F2D+INO+QNO+ZSP	7.8	9.33	60.0	CPC005_HT29_6H_X2	K03	population
CPC005_HT29_6H_X3_B3_DUO52HI53LO:K03	BRD-A24514565	WARFARIN	HT29	6.0	h	10.0	um	b3	r2	dp52,dp53	18.0	77.0	duo	CPC005_HT29_6H_X3_B3_DUO52HI53LO	K03	mlr12k	384.0	AB00009410	C-5001-01-CMP-013	1.0	K03	BRD-A24514565-001-04-8	trt_cp	DMSO	epsilon	KMV+F2D+INO+QNO+ZSP	6.0	14.33	60.0	CPC005_HT29_6H_X3	K03	population
CPC005_MCF7_24H_X1_B4_DUO52HI53LO:K03	BRD-A24514565	WARFARIN	MCF7	24.0	h	10.0	um	b4	r2	dp52,dp53	19.0	97.0	duo	CPC005_MCF7_24H_X1_B4_DUO52HI53LO	K03	mlr12k	384.0	AB00009410	C-5001-01-CMP-013	1.0	K03	BRD-A24514565-001-04-8	trt_cp	DMSO	epsilon	KMV+F2D+INO+QNO+ZSP	8.4	8.76	60.0	CPC005_MCF7_24H_X1	K03	population
CPC005_MCF7_24H_X2_B4_DUO52HI53LO:K03	BRD-A24514565	WARFARIN	MCF7	24.0	h	10.0	um	b4	r2	dp52,dp53	27.0	68.0	duo	CPC005_MCF7_24H_X2_B4_DUO52HI53LO	K03	mlr12k	384.0	AB00009410	C-5001-01-CMP-013	1.0	K03	BRD-A24514565-001-04-8	trt_cp	DMSO	epsilon	KMV+F2D+INO+QNO+ZSP	9.0	6.99	58.0	CPC005_MCF7_24H_X2	K03	population
CPC005_MCF7_24H_X3_B4_DUO52HI53LO:K03	BRD-A24514565	WARFARIN	MCF7	24.0	h	10.0	um	b4	r2	dp52,dp53	17.0	105.0	duo	CPC005_MCF7_24H_X3_B4_DUO52HI53LO	K03	mlr12k	384.0	AB00009410	C-5001-01-CMP-013	1.0	K03	BRD-A24514565-001-04-8	trt_cp	DMSO	epsilon	KMV+F2D+INO+QNO+ZSP	7.8	9.0	61.0	CPC005_MCF7_24H_X3	K03	population
CPC005_MCF7_24H_X4_B5_DUO52HI53LO:K03	BRD-A24514565	WARFARIN	MCF7	24.0	h	10.0	um	b5	r2	dp52,dp53	18.0	83.0	duo	CPC005_MCF7_24H_X4_B5_DUO52HI53LO	K03	mlr12k	384.0	AB00009410	C-5001-01-CMP-013	1.0	K03	BRD-A24514565-001-04-8	trt_cp	DMSO	epsilon	KMV+F2D+INO+QNO+ZSP	4.7	8.37	63.0	CPC005_MCF7_24H_X4	K03	population
CPC005_MCF7_24H_X5_F2B4_DUO52HI53LO:K03	BRD-A24514565	WARFARIN	MCF7	24.0	h	10.0	um	f2b4	r2	dp52,dp53	27.0	83.0	duo	CPC005_MCF7_24H_X5_F2B4_DUO52HI53LO	K03	mlr12k	384.0	AB00009410	C-5001-01-CMP-013	1.0	K03	BRD-A24514565-001-04-8	trt_cp	DMSO	epsilon	KMV+F2D+INO+QNO+ZSP	7.1	14.54	68.0	CPC005_MCF7_24H_X5	K03	population
CPC005_MCF7_6H_X1_B3_DUO52HI53LO:K03	BRD-A24514565	WARFARIN	MCF7	6.0	h	10.0	um	b3	r2	dp52,dp53	19.0	71.0	duo	CPC005_MCF7_6H_X1_B3_DUO52HI53LO	K03	mlr12k	384.0	AB00009410	C-5001-01-CMP-013	1.0	K03	BRD-A24514565-001-04-8	trt_cp	DMSO	epsilon	KMV+F2D+INO+QNO+ZSP	7.2	10.63	63.0	CPC005_MCF7_6H_X1	K03	population
CPC005_MCF7_6H_X2_B3_DUO52HI53LO:K03	BRD-A24514565	WARFARIN	MCF7	6.0	h	10.0	um	b3	r2	dp52,dp53	19.0	64.0	duo	CPC005_MCF7_6H_X2_B3_DUO52HI53LO	K03	mlr12k	384.0	AB00009410	C-5001-01-CMP-013	1.0	K03	BRD-A24514565-001-04-8	trt_cp	DMSO	epsilon	KMV+F2D+INO+QNO+ZSP	7.2	10.44	64.0	CPC005_MCF7_6H_X2	K03	population
CPC005_MCF7_6H_X2_F1B3_DUO52HI53LO:K03	BRD-A24514565	WARFARIN	MCF7	6.0	h	10.0	um	f1b3	r2	dp52,dp53	20.0	71.0	duo	CPC005_MCF7_6H_X2_F1B3_DUO52HI53LO	K03	mlr12k	384.0	AB00009410	C-5001-01-CMP-013	1.0	K03	BRD-A24514565-001-04-8	trt_cp	DMSO	epsilon	KMV+F2D+INO+QNO+ZSP	7.4	10.58	63.0	CPC005_MCF7_6H_X2	K03	population
CPC005_MCF7_6H_X3_B3_DUO52HI53LO:K03	BRD-A24514565	WARFARIN	MCF7	6.0	h	10.0	um	b3	r2	dp52,dp53	18.0	85.0	duo	CPC005_MCF7_6H_X3_B3_DUO52HI53LO	K03	mlr12k	384.0	AB00009410	C-5001-01-CMP-013	1.0	K03	BRD-A24514565-001-04-8	trt_cp	DMSO	epsilon	KMV+F2D+INO+QNO+ZSP	7.2	11.12	63.0	CPC005_MCF7_6H_X3	K03	population
CPC005_MCF7_6H_X5_F1B5_DUO52HI53LO:K03	BRD-A24514565	WARFARIN	MCF7	6.0	h	10.0	um	f1b5	r2	dp52,dp53	16.0	69.0	duo	CPC005_MCF7_6H_X5_F1B5_DUO52HI53LO	K03	mlr12k	384.0	AB00009410	C-5001-01-CMP-013	1.0	K03	BRD-A24514565-001-04-8	trt_cp	DMSO	epsilon	KMV+F2D+INO+QNO+ZSP	8.2	13.22	65.0	CPC005_MCF7_6H_X5	K03	population
CPC005_PC3_24H_X1_B4_DUO52HI53LO:K03	BRD-A24514565	WARFARIN	PC3	24.0	h	10.0	um	b4	r2	dp52,dp53	20.0	96.0	duo	CPC005_PC3_24H_X1_B4_DUO52HI53LO	K03	mlr12k	384.0	AB00009410	C-5001-01-CMP-013	1.0	K03	BRD-A24514565-001-04-8	trt_cp	DMSO	epsilon	KMV+F2D+INO+QNO+ZSP	7.5	8.3	60.0	CPC005_PC3_24H_X1	K03	population
CPC005_PC3_24H_X2_B4_DUO52HI53LO:K03	BRD-A24514565	WARFARIN	PC3	24.0	h	10.0	um	b4	r2	dp52,dp53	18.0	100.0	duo	CPC005_PC3_24H_X2_B4_DUO52HI53LO	K03	mlr12k	384.0	AB00009410	C-5001-01-CMP-013	1.0	K03	BRD-A24514565-001-04-8	trt_cp	DMSO	epsilon	KMV+F2D+INO+QNO+ZSP	7.5	8.42	60.0	CPC005_PC3_24H_X2	K03	population
CPC005_PC3_24H_X3_B4_DUO52HI53LO:K03	BRD-A24514565	WARFARIN	PC3	24.0	h	10.0	um	b4	r2	dp52,dp53	21.0	83.0	duo	CPC005_PC3_24H_X3_B4_DUO52HI53LO	K03	mlr12k	384.0	AB00009410	C-5001-01-CMP-013	1.0	K03	BRD-A24514565-001-04-8	trt_cp	DMSO	epsilon	KMV+F2D+INO+QNO+ZSP	7.1	9.43	61.0	CPC005_PC3_24H_X3	K03	population
CPC005_PC3_24H_X4_B5_DUO52HI53LO:K03	BRD-A24514565	WARFARIN	PC3	24.0	h	10.0	um	b5	r2	dp52,dp53	15.0	77.0	duo	CPC005_PC3_24H_X4_B5_DUO52HI53LO	K03	mlr12k	384.0	AB00009410	C-5001-01-CMP-013	1.0	K03	BRD-A24514565-001-04-8	trt_cp	DMSO	epsilon	KMV+F2D+INO+QNO+ZSP	7.7	9.5	65.0	CPC005_PC3_24H_X4	K03	population
CPC005_PC3_24H_X5_B5_DUO52HI53LO:K03	BRD-A24514565	WARFARIN	PC3	24.0	h	10.0	um	b5	r2	dp52,dp53	17.0	83.0	duo	CPC005_PC3_24H_X5_B5_DUO52HI53LO	K03	mlr12k	384.0	AB00009410	C-5001-01-CMP-013	1.0	K03	BRD-A24514565-001-04-8	trt_cp	DMSO	epsilon	KMV+F2D+INO+QNO+ZSP	8.7	8.85	65.0	CPC005_PC3_24H_X5	K03	population
CPC005_PC3_6H_X5_F1B5_DUO52HI53LO:K03	BRD-A24514565	WARFARIN	PC3	6.0	h	10.0	um	f1b5	r2	dp52,dp53	14.0	101.0	duo	CPC005_PC3_6H_X5_F1B5_DUO52HI53LO	K03	mlr12k	384.0	AB00009410	C-5001-01-CMP-013	1.0	K03	BRD-A24514565-001-04-8	trt_cp	DMSO	epsilon	KMV+F2D+INO+QNO+ZSP	7.4	9.98	64.0	CPC005_PC3_6H_X5	K03	population
CPC005_VCAP_24H_X1_B3_DUO52HI53LO:K03	BRD-A24514565	WARFARIN	VCAP	24.0	h	10.0	um	b3	r2	dp52,dp53	19.0	64.0	duo	CPC005_VCAP_24H_X1_B3_DUO52HI53LO	K03	mlr12k	384.0	AB00009410	C-5001-01-CMP-013	1.0	K03	BRD-A24514565-001-04-8	trt_cp	DMSO	epsilon	KMV+F2D+INO+QNO+ZSP	6.6	10.94	64.0	CPC005_VCAP_24H_X1	K03	population
CPC005_VCAP_24H_X2_B3_DUO52HI53LO:K03	BRD-A24514565	WARFARIN	VCAP	24.0	h	10.0	um	b3	r2	dp52,dp53	20.0	62.0	duo	CPC005_VCAP_24H_X2_B3_DUO52HI53LO	K03	mlr12k	384.0	AB00009410	C-5001-01-CMP-013	1.0	K03	BRD-A24514565-001-04-8	trt_cp	DMSO	epsilon	KMV+F2D+INO+QNO+ZSP	4.5	15.78	65.0	CPC005_VCAP_24H_X2	K03	population
CPC005_VCAP_24H_X3_B3_DUO52HI53LO:K03	BRD-A24514565	WARFARIN	VCAP	24.0	h	10.0	um	b3	r2	dp52,dp53	17.0	75.0	duo	CPC005_VCAP_24H_X3_B3_DUO52HI53LO	K03	mlr12k	384.0	AB00009410	C-5001-01-CMP-013	1.0	K03	BRD-A24514565-001-04-8	trt_cp	DMSO	epsilon	KMV+F2D+INO+QNO+ZSP	6.2	10.2	65.0	CPC005_VCAP_24H_X3	K03	population
CPC005_VCAP_24H_X4_F1B5_DUO52HI53LO:K03	BRD-A24514565	WARFARIN	VCAP	24.0	h	10.0	um	f1b5	r2	dp52,dp53	15.0	73.0	duo	CPC005_VCAP_24H_X4_F1B5_DUO52HI53LO	K03	mlr12k	384.0	AB00009410	C-5001-01-CMP-013	1.0	K03	BRD-A24514565-001-04-8	trt_cp	DMSO	epsilon	KMV+F2D+INO+QNO+ZSP	8.3	48.3	72.0	CPC005_VCAP_24H_X4	K03	population
CPC005_VCAP_24H_X5_F2B4_DUO52HI53LO:K03	BRD-A24514565	WARFARIN	VCAP	24.0	h	10.0	um	f2b4	r2	dp52,dp53	26.0	79.0	duo	CPC005_VCAP_24H_X5_F2B4_DUO52HI53LO	K03	mlr12k	384.0	AB00009410	C-5001-01-CMP-013	1.0	K03	BRD-A24514565-001-04-8	trt_cp	DMSO	epsilon	KMV+F2D+INO+QNO+ZSP	7.1	27.23	73.0	CPC005_VCAP_24H_X5	K03	population
CPC005_VCAP_6H_X1_F1B3_DUO52HI53LO:K03	BRD-A24514565	WARFARIN	VCAP	6.0	h	10.0	um	f1b3	r2	dp52,dp53	21.0	99.0	duo	CPC005_VCAP_6H_X1_F1B3_DUO52HI53LO	K03	mlr12k	384.0	AB00009410	C-5001-01-CMP-013	1.0	K03	BRD-A24514565-001-04-8	trt_cp	DMSO	epsilon	KMV+F2D+INO+QNO+ZSP	7.4	14.58	67.0	CPC005_VCAP_6H_X1	K03	population
CPC005_VCAP_6H_X2_F1B3_DUO52HI53LO:K03	BRD-A24514565	WARFARIN	VCAP	6.0	h	10.0	um	f1b3	r2	dp52,dp53	23.0	63.0	duo	CPC005_VCAP_6H_X2_F1B3_DUO52HI53LO	K03	mlr12k	384.0	AB00009410	C-5001-01-CMP-013	1.0	K03	BRD-A24514565-001-04-8	trt_cp	DMSO	epsilon	KMV+F2D+INO+QNO+ZSP	6.2	15.71	60.0	CPC005_VCAP_6H_X2	K03	population
CPC005_VCAP_6H_X4_B5_DUO52HI53LO:K03	BRD-A24514565	WARFARIN	VCAP	6.0	h	10.0	um	b5	r2	dp52,dp53	15.0	66.0	duo	CPC005_VCAP_6H_X4_B5_DUO52HI53LO	K03	mlr12k	384.0	AB00009410	C-5001-01-CMP-013	1.0	K03	BRD-A24514565-001-04-8	trt_cp	DMSO	epsilon	KMV+F2D+INO+QNO+ZSP	6.5	12.29	66.0	CPC005_VCAP_6H_X4	K03	population
CPC005_VCAP_6H_X5_B5_DUO52HI53LO:K03	BRD-A24514565	WARFARIN	VCAP	6.0	h	10.0	um	b5	r2	dp52,dp53	16.0	76.0	duo	CPC005_VCAP_6H_X5_B5_DUO52HI53LO	K03	mlr12k	384.0	AB00009410	C-5001-01-CMP-013	1.0	K03	BRD-A24514565-001-04-8	trt_cp	DMSO	epsilon	KMV+F2D+INO+QNO+ZSP	7.0	26.75	69.0	CPC005_VCAP_6H_X5	K03	population
CPC020_A375_6H_X1_B4_DUO52HI53LO:L23	BRD-A24514565	warfarin	A375	6.0	h	10.0	um	b4	r2	dp52,dp53	20.0	73.0	duo	CPC020_A375_6H_X1_B4_DUO52HI53LO	L23	mlr12k	384.0	AB00009104	C-5001-01-CMP-022	1.0	L23	BRD-A24514565-236-11-5	trt_cp	DMSO	epsilon	KMV+F2D+INO+QNO+ZSP	7.4	9.63	62.0	CPC020_A375_6H_X1	L23	population
CPC020_A375_6H_X2_B4_DUO52HI53LO:L23	BRD-A24514565	warfarin	A375	6.0	h	10.0	um	b4	r2	dp52,dp53	25.0	76.0	duo	CPC020_A375_6H_X2_B4_DUO52HI53LO	L23	mlr12k	384.0	AB00009104	C-5001-01-CMP-022	1.0	L23	BRD-A24514565-236-11-5	trt_cp	DMSO	epsilon	KMV+F2D+INO+QNO+ZSP	7.7	9.92	60.0	CPC020_A375_6H_X2	L23	population
CPC020_A375_6H_X3_B4_DUO52HI53LO:L23	BRD-A24514565	warfarin	A375	6.0	h	10.0	um	b4	r2	dp52,dp53	27.0	72.0	duo	CPC020_A375_6H_X3_B4_DUO52HI53LO	L23	mlr12k	384.0	AB00009104	C-5001-01-CMP-022	1.0	L23	BRD-A24514565-236-11-5	trt_cp	DMSO	epsilon	KMV+F2D+INO+QNO+ZSP	7.8	10.05	62.0	CPC020_A375_6H_X3	L23	population
CPC020_A375_6H_X4_B5_DUO52HI53LO:L23	BRD-A24514565	warfarin	A375	6.0	h	10.0	um	b5	r2	dp52,dp53	14.0	93.0	duo	CPC020_A375_6H_X4_B5_DUO52HI53LO	L23	mlr12k	384.0	AB00009104	C-5001-01-CMP-022	1.0	L23	BRD-A24514565-236-11-5	trt_cp	DMSO	epsilon	KMV+F2D+INO+QNO+ZSP	7.9	11.69	65.0	CPC020_A375_6H_X4	L23	population
CPC020_A375_6H_X5_F1B5_DUO52HI53LO:L23	BRD-A24514565	warfarin	A375	6.0	h	10.0	um	f1b5	r2	dp52,dp53	14.0	93.0	duo	CPC020_A375_6H_X5_F1B5_DUO52HI53LO	L23	mlr12k	384.0	AB00009104	C-5001-01-CMP-022	1.0	L23	BRD-A24514565-236-11-5	trt_cp	DMSO	epsilon	KMV+F2D+INO+QNO+ZSP	8.7	12.21	67.0	CPC020_A375_6H_X5	L23	population
CPC020_A549_6H_X1.L2_F2B5_DUO52HI53LO:L23	BRD-A24514565	warfarin	A549	6.0	h	10.0	um	f2b5	r2	dp52,dp53	15.0	93.0	duo	CPC020_A549_6H_X1.L2_F2B5_DUO52HI53LO	L23	mlr12k	384.0	AB00009104	C-5001-01-CMP-022	1.0	L23	BRD-A24514565-236-11-5	trt_cp	DMSO	epsilon	KMV+F2D+INO+QNO+ZSP	7.7	17.6	67.0	CPC020_A549_6H_X1.L2	L23	population
CPC020_A549_6H_X3.L2_F2B5_DUO52HI53LO:L23	BRD-A24514565	warfarin	A549	6.0	h	10.0	um	f2b5	r2	dp52,dp53	14.0	112.0	duo	CPC020_A549_6H_X3.L2_F2B5_DUO52HI53LO	L23	mlr12k	384.0	AB00009104	C-5001-01-CMP-022	1.0	L23	BRD-A24514565-236-11-5	trt_cp	DMSO	epsilon	KMV+F2D+INO+QNO+ZSP	7.7	16.03	68.0	CPC020_A549_6H_X3.L2	L23	population
CPC020_HA1E_6H_X1_F1B3_DUO52HI53LO:L23	BRD-A24514565	warfarin	HA1E	6.0	h	10.0	um	f1b3	r2	dp52,dp53	19.0	83.0	duo	CPC020_HA1E_6H_X1_F1B3_DUO52HI53LO	L23	mlr12k	384.0	AB00009104	C-5001-01-CMP-022	1.0	L23	BRD-A24514565-236-11-5	trt_cp	DMSO	epsilon	KMV+F2D+INO+QNO+ZSP	6.3	11.66	64.0	CPC020_HA1E_6H_X1	L23	population
CPC020_HA1E_6H_X2_F1B3_DUO52HI53LO:L23	BRD-A24514565	warfarin	HA1E	6.0	h	10.0	um	f1b3	r2	dp52,dp53	19.0	96.0	duo	CPC020_HA1E_6H_X2_F1B3_DUO52HI53LO	L23	mlr12k	384.0	AB00009104	C-5001-01-CMP-022	1.0	L23	BRD-A24514565-236-11-5	trt_cp	DMSO	epsilon	KMV+F2D+INO+QNO+ZSP	6.2	12.03	64.0	CPC020_HA1E_6H_X2	L23	population
CPC020_HA1E_6H_X3_F1B3_DUO52HI53LO:L23	BRD-A24514565	warfarin	HA1E	6.0	h	10.0	um	f1b3	r2	dp52,dp53	24.0	86.0	duo	CPC020_HA1E_6H_X3_F1B3_DUO52HI53LO	L23	mlr12k	384.0	AB00009104	C-5001-01-CMP-022	1.0	L23	BRD-A24514565-236-11-5	trt_cp	DMSO	epsilon	KMV+F2D+INO+QNO+ZSP	4.5	14.58	70.0	CPC020_HA1E_6H_X3	L23	population
CPC020_HCC515_6H_X2_F1B3_DUO52HI53LO:L23	BRD-A24514565	warfarin	HCC515	6.0	h	10.0	um	f1b3	r2	dp52,dp53	22.0	72.0	duo	CPC020_HCC515_6H_X2_F1B3_DUO52HI53LO	L23	mlr12k	384.0	AB00009104	C-5001-01-CMP-022	1.0	L23	BRD-A24514565-236-11-5	trt_cp	DMSO	epsilon	KMV+F2D+INO+QNO+ZSP	6.7	12.69	64.0	CPC020_HCC515_6H_X2	L23	population
CPC020_HCC515_6H_X3_B4_DUO52HI53LO:L23	BRD-A24514565	warfarin	HCC515	6.0	h	10.0	um	b4	r2	dp52,dp53	21.0	90.0	duo	CPC020_HCC515_6H_X3_B4_DUO52HI53LO	L23	mlr12k	384.0	AB00009104	C-5001-01-CMP-022	1.0	L23	BRD-A24514565-236-11-5	trt_cp	DMSO	epsilon	KMV+F2D+INO+QNO+ZSP	7.3	8.29	64.0	CPC020_HCC515_6H_X3	L23	population
CPC020_HT29_6H_X1.L2_F1B5_DUO52HI53LO:L23	BRD-A24514565	warfarin	HT29	6.0	h	10.0	um	f1b5	r2	dp52,dp53	13.0	130.0	duo	CPC020_HT29_6H_X1.L2_F1B5_DUO52HI53LO	L23	mlr12k	384.0	AB00009104	C-5001-01-CMP-022	1.0	L23	BRD-A24514565-236-11-5	trt_cp	DMSO	epsilon	KMV+F2D+INO+QNO+ZSP	7.6	12.45	68.0	CPC020_HT29_6H_X1.L2	L23	population
CPC020_HT29_6H_X2.L2_B6_DUO52HI53LO:L23	BRD-A24514565	warfarin	HT29	6.0	h	10.0	um	b6	r2	dp52,dp53	15.0	100.0	duo	CPC020_HT29_6H_X2.L2_B6_DUO52HI53LO	L23	mlr12k	384.0	AB00009104	C-5001-01-CMP-022	1.0	L23	BRD-A24514565-236-11-5	trt_cp	DMSO	epsilon	KMV+F2D+INO+QNO+ZSP	6.8	14.32	65.0	CPC020_HT29_6H_X2.L2	L23	population
CPC020_HT29_6H_X4_B5_DUO52HI53LO:L23	BRD-A24514565	warfarin	HT29	6.0	h	10.0	um	b5	r2	dp52,dp53	15.0	68.0	duo	CPC020_HT29_6H_X4_B5_DUO52HI53LO	L23	mlr12k	384.0	AB00009104	C-5001-01-CMP-022	1.0	L23	BRD-A24514565-236-11-5	trt_cp	DMSO	epsilon	KMV+F2D+INO+QNO+ZSP	6.9	10.08	65.0	CPC020_HT29_6H_X4	L23	population
CPC020_HT29_6H_X5_B5_DUO52HI53LO:L23	BRD-A24514565	warfarin	HT29	6.0	h	10.0	um	b5	r2	dp52,dp53	15.0	80.0	duo	CPC020_HT29_6H_X5_B5_DUO52HI53LO	L23	mlr12k	384.0	AB00009104	C-5001-01-CMP-022	1.0	L23	BRD-A24514565-236-11-5	trt_cp	DMSO	epsilon	KMV+F2D+INO+QNO+ZSP	6.5	10.39	65.0	CPC020_HT29_6H_X5	L23	population
CPC020_MCF7_24H_X1_F1B4_DUO52HI53LO:L23	BRD-A24514565	warfarin	MCF7	24.0	h	10.0	um	f1b4	r2	dp52,dp53	23.0	69.0	duo	CPC020_MCF7_24H_X1_F1B4_DUO52HI53LO	L23	mlr12k	384.0	AB00009104	C-5001-01-CMP-022	1.0	L23	BRD-A24514565-236-11-5	trt_cp	DMSO	epsilon	KMV+F2D+INO+QNO+ZSP	6.5	9.84	63.0	CPC020_MCF7_24H_X1	L23	population
CPC020_MCF7_24H_X2_F1B4_DUO52HI53LO:L23	BRD-A24514565	warfarin	MCF7	24.0	h	10.0	um	f1b4	r2	dp52,dp53	23.0	56.0	duo	CPC020_MCF7_24H_X2_F1B4_DUO52HI53LO	L23	mlr12k	384.0	AB00009104	C-5001-01-CMP-022	1.0	L23	BRD-A24514565-236-11-5	trt_cp	DMSO	epsilon	KMV+F2D+INO+QNO+ZSP	8.1	10.45	63.0	CPC020_MCF7_24H_X2	L23	population
CPC020_MCF7_24H_X3_F1B4_DUO52HI53LO:L23	BRD-A24514565	warfarin	MCF7	24.0	h	10.0	um	f1b4	r2	dp52,dp53	22.0	69.0	duo	CPC020_MCF7_24H_X3_F1B4_DUO52HI53LO	L23	mlr12k	384.0	AB00009104	C-5001-01-CMP-022	1.0	L23	BRD-A24514565-236-11-5	trt_cp	DMSO	epsilon	KMV+F2D+INO+QNO+ZSP	5.0	15.38	66.0	CPC020_MCF7_24H_X3	L23	population
CPC020_MCF7_24H_X4_F2B4_DUO52HI53LO:L23	BRD-A24514565	warfarin	MCF7	24.0	h	10.0	um	f2b4	r2	dp52,dp53	25.0	94.0	duo	CPC020_MCF7_24H_X4_F2B4_DUO52HI53LO	L23	mlr12k	384.0	AB00009104	C-5001-01-CMP-022	1.0	L23	BRD-A24514565-236-11-5	trt_cp	DMSO	epsilon	KMV+F2D+INO+QNO+ZSP	6.4	16.29	67.0	CPC020_MCF7_24H_X4	L23	population
CPC020_MCF7_24H_X5_B5_DUO52HI53LO:L23	BRD-A24514565	warfarin	MCF7	24.0	h	10.0	um	b5	r2	dp52,dp53	18.0	72.0	duo	CPC020_MCF7_24H_X5_B5_DUO52HI53LO	L23	mlr12k	384.0	AB00009104	C-5001-01-CMP-022	1.0	L23	BRD-A24514565-236-11-5	trt_cp	DMSO	epsilon	KMV+F2D+INO+QNO+ZSP	6.4	13.2	66.0	CPC020_MCF7_24H_X5	L23	population
CPC020_MCF7_6H_X1_B4_DUO52HI53LO:L23	BRD-A24514565	warfarin	MCF7	6.0	h	10.0	um	b4	r2	dp52,dp53	21.0	67.0	duo	CPC020_MCF7_6H_X1_B4_DUO52HI53LO	L23	mlr12k	384.0	AB00009104	C-5001-01-CMP-022	1.0	L23	BRD-A24514565-236-11-5	trt_cp	DMSO	epsilon	KMV+F2D+INO+QNO+ZSP	8.3	9.49	61.0	CPC020_MCF7_6H_X1	L23	population
CPC020_MCF7_6H_X2_B4_DUO52HI53LO:L23	BRD-A24514565	warfarin	MCF7	6.0	h	10.0	um	b4	r2	dp52,dp53	19.0	72.0	duo	CPC020_MCF7_6H_X2_B4_DUO52HI53LO	L23	mlr12k	384.0	AB00009104	C-5001-01-CMP-022	1.0	L23	BRD-A24514565-236-11-5	trt_cp	DMSO	epsilon	KMV+F2D+INO+QNO+ZSP	7.9	9.59	61.0	CPC020_MCF7_6H_X2	L23	population
CPC020_MCF7_6H_X3_B4_DUO52HI53LO:L23	BRD-A24514565	warfarin	MCF7	6.0	h	10.0	um	b4	r2	dp52,dp53	31.0	70.0	duo	CPC020_MCF7_6H_X3_B4_DUO52HI53LO	L23	mlr12k	384.0	AB00009104	C-5001-01-CMP-022	1.0	L23	BRD-A24514565-236-11-5	trt_cp	DMSO	epsilon	KMV+F2D+INO+QNO+ZSP	8.3	9.52	61.0	CPC020_MCF7_6H_X3	L23	population
CPC020_MCF7_6H_X5_F1B5_DUO52HI53LO:L23	BRD-A24514565	warfarin	MCF7	6.0	h	10.0	um	f1b5	r2	dp52,dp53	16.0	69.0	duo	CPC020_MCF7_6H_X5_F1B5_DUO52HI53LO	L23	mlr12k	384.0	AB00009104	C-5001-01-CMP-022	1.0	L23	BRD-A24514565-236-11-5	trt_cp	DMSO	epsilon	KMV+F2D+INO+QNO+ZSP	8.4	11.02	64.0	CPC020_MCF7_6H_X5	L23	population
CPC020_PC3_24H_X1_B5_DUO52HI53LO:L23	BRD-A24514565	warfarin	PC3	24.0	h	10.0	um	b5	r2	dp52,dp53	17.0	91.0	duo	CPC020_PC3_24H_X1_B5_DUO52HI53LO	L23	mlr12k	384.0	AB00009104	C-5001-01-CMP-022	1.0	L23	BRD-A24514565-236-11-5	trt_cp	DMSO	epsilon	KMV+F2D+INO+QNO+ZSP	6.2	20.9	68.0	CPC020_PC3_24H_X1	L23	population
CPC020_PC3_24H_X2_B5_DUO52HI53LO:L23	BRD-A24514565	warfarin	PC3	24.0	h	10.0	um	b5	r2	dp52,dp53	19.0	76.0	duo	CPC020_PC3_24H_X2_B5_DUO52HI53LO	L23	mlr12k	384.0	AB00009104	C-5001-01-CMP-022	1.0	L23	BRD-A24514565-236-11-5	trt_cp	DMSO	epsilon	KMV+F2D+INO+QNO+ZSP	7.1	8.62	65.0	CPC020_PC3_24H_X2	L23	population
CPC020_PC3_24H_X3_B5_DUO52HI53LO:L23	BRD-A24514565	warfarin	PC3	24.0	h	10.0	um	b5	r2	dp52,dp53	13.0	95.0	duo	CPC020_PC3_24H_X3_B5_DUO52HI53LO	L23	mlr12k	384.0	AB00009104	C-5001-01-CMP-022	1.0	L23	BRD-A24514565-236-11-5	trt_cp	DMSO	epsilon	KMV+F2D+INO+QNO+ZSP	8.4	8.95	62.0	CPC020_PC3_24H_X3	L23	population
CPC020_PC3_24H_X4_B5_DUO52HI53LO:L23	BRD-A24514565	warfarin	PC3	24.0	h	10.0	um	b5	r2	dp52,dp53	15.0	84.0	duo	CPC020_PC3_24H_X4_B5_DUO52HI53LO	L23	mlr12k	384.0	AB00009104	C-5001-01-CMP-022	1.0	L23	BRD-A24514565-236-11-5	trt_cp	DMSO	epsilon	KMV+F2D+INO+QNO+ZSP	7.2	19.93	68.0	CPC020_PC3_24H_X4	L23	population
CPC020_PC3_24H_X5_B5_DUO52HI53LO:L23	BRD-A24514565	warfarin	PC3	24.0	h	10.0	um	b5	r2	dp52,dp53	17.0	66.0	duo	CPC020_PC3_24H_X5_B5_DUO52HI53LO	L23	mlr12k	384.0	AB00009104	C-5001-01-CMP-022	1.0	L23	BRD-A24514565-236-11-5	trt_cp	DMSO	epsilon	KMV+F2D+INO+QNO+ZSP	8.3	9.62	63.0	CPC020_PC3_24H_X5	L23	population
CPC020_PC3_6H_X4_F1B4_DUO52HI53LO:L23	BRD-A24514565	warfarin	PC3	6.0	h	10.0	um	f1b4	r2	dp52,dp53	21.0	78.0	duo	CPC020_PC3_6H_X4_F1B4_DUO52HI53LO	L23	mlr12k	384.0	AB00009104	C-5001-01-CMP-022	1.0	L23	BRD-A24514565-236-11-5	trt_cp	DMSO	epsilon	KMV+F2D+INO+QNO+ZSP	8.7	8.59	63.0	CPC020_PC3_6H_X4	L23	population
CPC020_VCAP_24H_X1_F1B5_DUO52HI53LO:L23	BRD-A24514565	warfarin	VCAP	24.0	h	10.0	um	f1b5	r2	dp52,dp53	16.0	74.0	duo	CPC020_VCAP_24H_X1_F1B5_DUO52HI53LO	L23	mlr12k	384.0	AB00009104	C-5001-01-CMP-022	1.0	L23	BRD-A24514565-236-11-5	trt_cp	DMSO	epsilon	KMV+F2D+INO+QNO+ZSP	8.5	14.33	67.0	CPC020_VCAP_24H_X1	L23	population
CPC020_VCAP_24H_X2_F1B5_DUO52HI53LO:L23	BRD-A24514565	warfarin	VCAP	24.0	h	10.0	um	f1b5	r2	dp52,dp53	13.0	91.0	duo	CPC020_VCAP_24H_X2_F1B5_DUO52HI53LO	L23	mlr12k	384.0	AB00009104	C-5001-01-CMP-022	1.0	L23	BRD-A24514565-236-11-5	trt_cp	DMSO	epsilon	KMV+F2D+INO+QNO+ZSP	8.4	8.9	61.0	CPC020_VCAP_24H_X2	L23	population
CPC020_VCAP_24H_X3_F1B5_DUO52HI53LO:L23	BRD-A24514565	warfarin	VCAP	24.0	h	10.0	um	f1b5	r2	dp52,dp53	14.0	88.0	duo	CPC020_VCAP_24H_X3_F1B5_DUO52HI53LO	L23	mlr12k	384.0	AB00009104	C-5001-01-CMP-022	1.0	L23	BRD-A24514565-236-11-5	trt_cp	DMSO	epsilon	KMV+F2D+INO+QNO+ZSP	7.1	11.83	64.0	CPC020_VCAP_24H_X3	L23	population
CPC020_VCAP_24H_X4_B5_DUO52HI53LO:L23	BRD-A24514565	warfarin	VCAP	24.0	h	10.0	um	b5	r2	dp52,dp53	17.0	79.0	duo	CPC020_VCAP_24H_X4_B5_DUO52HI53LO	L23	mlr12k	384.0	AB00009104	C-5001-01-CMP-022	1.0	L23	BRD-A24514565-236-11-5	trt_cp	DMSO	epsilon	KMV+F2D+INO+QNO+ZSP	8.1	10.14	64.0	CPC020_VCAP_24H_X4	L23	population
CPC020_VCAP_24H_X5_B5_DUO52HI53LO:L23	BRD-A24514565	warfarin	VCAP	24.0	h	10.0	um	b5	r2	dp52,dp53	15.0	82.0	duo	CPC020_VCAP_24H_X5_B5_DUO52HI53LO	L23	mlr12k	384.0	AB00009104	C-5001-01-CMP-022	1.0	L23	BRD-A24514565-236-11-5	trt_cp	DMSO	epsilon	KMV+F2D+INO+QNO+ZSP	8.2	9.65	63.0	CPC020_VCAP_24H_X5	L23	population
CPC020_VCAP_6H_X1_F1B3_DUO52HI53LO:L23	BRD-A24514565	warfarin	VCAP	6.0	h	10.0	um	f1b3	r2	dp52,dp53	23.0	66.0	duo	CPC020_VCAP_6H_X1_F1B3_DUO52HI53LO	L23	mlr12k	384.0	AB00009104	C-5001-01-CMP-022	1.0	L23	BRD-A24514565-236-11-5	trt_cp	DMSO	epsilon	KMV+F2D+INO+QNO+ZSP	7.5	12.53	62.0	CPC020_VCAP_6H_X1	L23	population
CPC020_VCAP_6H_X2_B4_DUO52HI53LO:L23	BRD-A24514565	warfarin	VCAP	6.0	h	10.0	um	b4	r2	dp52,dp53	21.0	85.0	duo	CPC020_VCAP_6H_X2_B4_DUO52HI53LO	L23	mlr12k	384.0	AB00009104	C-5001-01-CMP-022	1.0	L23	BRD-A24514565-236-11-5	trt_cp	DMSO	epsilon	KMV+F2D+INO+QNO+ZSP	8.1	8.92	61.0	CPC020_VCAP_6H_X2	L23	population
CPC020_VCAP_6H_X3_B4_DUO52HI53LO:L23	BRD-A24514565	warfarin	VCAP	6.0	h	10.0	um	b4	r2	dp52,dp53	21.0	92.0	duo	CPC020_VCAP_6H_X3_B4_DUO52HI53LO	L23	mlr12k	384.0	AB00009104	C-5001-01-CMP-022	1.0	L23	BRD-A24514565-236-11-5	trt_cp	DMSO	epsilon	KMV+F2D+INO+QNO+ZSP	6.7	9.56	63.0	CPC020_VCAP_6H_X3	L23	population
CPC020_VCAP_6H_X4_B5_DUO52HI53LO:L23	BRD-A24514565	warfarin	VCAP	6.0	h	10.0	um	b5	r2	dp52,dp53	16.0	72.0	duo	CPC020_VCAP_6H_X4_B5_DUO52HI53LO	L23	mlr12k	384.0	AB00009104	C-5001-01-CMP-022	1.0	L23	BRD-A24514565-236-11-5	trt_cp	DMSO	epsilon	KMV+F2D+INO+QNO+ZSP	7.2	10.05	63.0	CPC020_VCAP_6H_X4	L23	population
CPC020_VCAP_6H_X5_B5_DUO52HI53LO:L23	BRD-A24514565	warfarin	VCAP	6.0	h	10.0	um	b5	r2	dp52,dp53	16.0	68.0	duo	CPC020_VCAP_6H_X5_B5_DUO52HI53LO	L23	mlr12k	384.0	AB00009104	C-5001-01-CMP-022	1.0	L23	BRD-A24514565-236-11-5	trt_cp	DMSO	epsilon	KMV+F2D+INO+QNO+ZSP	8.4	10.62	66.0	CPC020_VCAP_6H_X5	L23	population
CPC005_PC3_6H_X1_B3_DUO52HI53LO:K03	BRD-A24514565	WARFARIN	PC3	6.0	h	10.0	um	b3	r2	dp52,dp53	20.0	71.0	duo	CPC005_PC3_6H_X1_B3_DUO52HI53LO	K03	mlr12k	384.0	AB00009410	C-5001-01-CMP-013	1.0	K03	BRD-A24514565-001-04-8	trt_cp	DMSO	epsilon	KMV+F2D+INO+QNO+ZSP	8.4	9.27	63.0	CPC005_PC3_6H_X1	K03	population
CPC005_PC3_6H_X2_B3_DUO52HI53LO:K03	BRD-A24514565	WARFARIN	PC3	6.0	h	10.0	um	b3	r2	dp52,dp53	16.0	84.0	duo	CPC005_PC3_6H_X2_B3_DUO52HI53LO	K03	mlr12k	384.0	AB00009410	C-5001-01-CMP-013	1.0	K03	BRD-A24514565-001-04-8	trt_cp	DMSO	epsilon	KMV+F2D+INO+QNO+ZSP	9.0	9.78	63.0	CPC005_PC3_6H_X2	K03	population
CPC005_PC3_6H_X3_B3_DUO52HI53LO:K03	BRD-A24514565	WARFARIN	PC3	6.0	h	10.0	um	b3	r2	dp52,dp53	20.0	70.0	duo	CPC005_PC3_6H_X3_B3_DUO52HI53LO	K03	mlr12k	384.0	AB00009410	C-5001-01-CMP-013	1.0	K03	BRD-A24514565-001-04-8	trt_cp	DMSO	epsilon	KMV+F2D+INO+QNO+ZSP	7.8	9.99	62.0	CPC005_PC3_6H_X3	K03	population
CPC020_PC3_6H_X1_B4_DUO52HI53LO:L23	BRD-A24514565	warfarin	PC3	6.0	h	10.0	um	b4	r2	dp52,dp53	18.0	102.0	duo	CPC020_PC3_6H_X1_B4_DUO52HI53LO	L23	mlr12k	384.0	AB00009104	C-5001-01-CMP-022	1.0	L23	BRD-A24514565-236-11-5	trt_cp	DMSO	epsilon	KMV+F2D+INO+QNO+ZSP	8.9	8.1	60.0	CPC020_PC3_6H_X1	L23	population
CPC020_PC3_6H_X2_B4_DUO52HI53LO:L23	BRD-A24514565	warfarin	PC3	6.0	h	10.0	um	b4	r2	dp52,dp53	18.0	89.0	duo	CPC020_PC3_6H_X2_B4_DUO52HI53LO	L23	mlr12k	384.0	AB00009104	C-5001-01-CMP-022	1.0	L23	BRD-A24514565-236-11-5	trt_cp	DMSO	epsilon	KMV+F2D+INO+QNO+ZSP	7.8	8.98	61.0	CPC020_PC3_6H_X2	L23	population
CPC020_PC3_6H_X3_B4_DUO52HI53LO:L23	BRD-A24514565	warfarin	PC3	6.0	h	10.0	um	b4	r2	dp52,dp53	19.0	92.0	duo	CPC020_PC3_6H_X3_B4_DUO52HI53LO	L23	mlr12k	384.0	AB00009104	C-5001-01-CMP-022	1.0	L23	BRD-A24514565-236-11-5	trt_cp	DMSO	epsilon	KMV+F2D+INO+QNO+ZSP	8.0	9.3	62.0	CPC020_PC3_6H_X3	L23	population
CPD002_MCF7_24H_X1_B6_DUO52HI53LO:H22	BRD-A24514565	Warfarin	MCF7	24.0	h	10.0	um	b6	r2	dp52,dp53	16.0	97.0	duo	CPD002_MCF7_24H_X1_B6_DUO52HI53LO	H22	mlr12k	384.0	BR00037928	PW_PLATE9	1.0	D11	BRD-A24514565-001-06-3	trt_cp	DMSO	epsilon	KMV+F2D+INO+QNO+ZSP	6.9	12.52	66.0	CPD002_MCF7_24H_X1	H22	population
CPD002_MCF7_24H_X2_B6_DUO52HI53LO:H22	BRD-A24514565	Warfarin	MCF7	24.0	h	10.0	um	b6	r2	dp52,dp53	16.0	74.0	duo	CPD002_MCF7_24H_X2_B6_DUO52HI53LO	H22	mlr12k	384.0	BR00037928	PW_PLATE9	1.0	D11	BRD-A24514565-001-06-3	trt_cp	DMSO	epsilon	KMV+F2D+INO+QNO+ZSP	8.1	20.65	66.0	CPD002_MCF7_24H_X2	H22	population
CPD002_MCF7_24H_X3_B6_DUO52HI53LO:H22	BRD-A24514565	Warfarin	MCF7	24.0	h	10.0	um	b6	r2	dp52,dp53	18.0	87.0	duo	CPD002_MCF7_24H_X3_B6_DUO52HI53LO	H22	mlr12k	384.0	BR00037928	PW_PLATE9	1.0	D11	BRD-A24514565-001-06-3	trt_cp	DMSO	epsilon	KMV+F2D+INO+QNO+ZSP	10.0	10.67	62.0	CPD002_MCF7_24H_X3	H22	population
CPD002_MCF7_6H_X1_B6_DUO52HI53LO:H22	BRD-A24514565	Warfarin	MCF7	6.0	h	10.0	um	b6	r2	dp52,dp53	19.0	50.0	duo	CPD002_MCF7_6H_X1_B6_DUO52HI53LO	H22	mlr12k	384.0	BR00037928	PW_PLATE9	1.0	D11	BRD-A24514565-001-06-3	trt_cp	DMSO	epsilon	KMV+F2D+INO+QNO+ZSP	7.0	13.05	64.0	CPD002_MCF7_6H_X1	H22	population
CPD002_MCF7_6H_X2_B6_DUO52HI53LO:H22	BRD-A24514565	Warfarin	MCF7	6.0	h	10.0	um	b6	r2	dp52,dp53	19.0	52.0	duo	CPD002_MCF7_6H_X2_B6_DUO52HI53LO	H22	mlr12k	384.0	BR00037928	PW_PLATE9	1.0	D11	BRD-A24514565-001-06-3	trt_cp	DMSO	epsilon	KMV+F2D+INO+QNO+ZSP	6.7	14.1	66.0	CPD002_MCF7_6H_X2	H22	population
CPD002_MCF7_6H_X3_B6_DUO52HI53LO:H22	BRD-A24514565	Warfarin	MCF7	6.0	h	10.0	um	b6	r2	dp52,dp53	19.0	55.0	duo	CPD002_MCF7_6H_X3_B6_DUO52HI53LO	H22	mlr12k	384.0	BR00037928	PW_PLATE9	1.0	D11	BRD-A24514565-001-06-3	trt_cp	DMSO	epsilon	KMV+F2D+INO+QNO+ZSP	5.9	20.78	68.0	CPD002_MCF7_6H_X3	H22	population
CPD002_PC3_24H_X1_B6_DUO52HI53LO:H22	BRD-A24514565	Warfarin	PC3	24.0	h	10.0	um	b6	r2	dp52,dp53	18.0	69.0	duo	CPD002_PC3_24H_X1_B6_DUO52HI53LO	H22	mlr12k	384.0	BR00037928	PW_PLATE9	1.0	D11	BRD-A24514565-001-06-3	trt_cp	DMSO	epsilon	KMV+F2D+INO+QNO+ZSP	6.1	11.73	63.0	CPD002_PC3_24H_X1	H22	population
CPD002_PC3_24H_X2_B6_DUO52HI53LO:H22	BRD-A24514565	Warfarin	PC3	24.0	h	10.0	um	b6	r2	dp52,dp53	16.0	95.0	duo	CPD002_PC3_24H_X2_B6_DUO52HI53LO	H22	mlr12k	384.0	BR00037928	PW_PLATE9	1.0	D11	BRD-A24514565-001-06-3	trt_cp	DMSO	epsilon	KMV+F2D+INO+QNO+ZSP	9.7	8.6	61.0	CPD002_PC3_24H_X2	H22	population
CPD002_PC3_24H_X3_B6_DUO52HI53LO:H22	BRD-A24514565	Warfarin	PC3	24.0	h	10.0	um	b6	r2	dp52,dp53	20.0	55.0	duo	CPD002_PC3_24H_X3_B6_DUO52HI53LO	H22	mlr12k	384.0	BR00037928	PW_PLATE9	1.0	D11	BRD-A24514565-001-06-3	trt_cp	DMSO	epsilon	KMV+F2D+INO+QNO+ZSP	10.2	9.58	64.0	CPD002_PC3_24H_X3	H22	population
CPD002_PC3_6H_X1_B6_DUO52HI53LO:H22	BRD-A24514565	Warfarin	PC3	6.0	h	10.0	um	b6	r2	dp52,dp53	20.0	51.0	duo	CPD002_PC3_6H_X1_B6_DUO52HI53LO	H22	mlr12k	384.0	BR00037928	PW_PLATE9	1.0	D11	BRD-A24514565-001-06-3	trt_cp	DMSO	epsilon	KMV+F2D+INO+QNO+ZSP	8.7	9.92	64.0	CPD002_PC3_6H_X1	H22	population
CPD002_PC3_6H_X2_B6_DUO52HI53LO:H22	BRD-A24514565	Warfarin	PC3	6.0	h	10.0	um	b6	r2	dp52,dp53	18.0	57.0	duo	CPD002_PC3_6H_X2_B6_DUO52HI53LO	H22	mlr12k	384.0	BR00037928	PW_PLATE9	1.0	D11	BRD-A24514565-001-06-3	trt_cp	DMSO	epsilon	KMV+F2D+INO+QNO+ZSP	8.3	11.12	64.0	CPD002_PC3_6H_X2	H22	population
CPD002_PC3_6H_X3_B6_DUO52HI53LO:H22	BRD-A24514565	Warfarin	PC3	6.0	h	10.0	um	b6	r2	dp52,dp53	16.0	60.0	duo	CPD002_PC3_6H_X3_B6_DUO52HI53LO	H22	mlr12k	384.0	BR00037928	PW_PLATE9	1.0	D11	BRD-A24514565-001-06-3	trt_cp	DMSO	epsilon	KMV+F2D+INO+QNO+ZSP	9.7	9.89	62.0	CPD002_PC3_6H_X3	H22	population
